module gitlab.com/BIC_Dev/social-media-messenger

go 1.14

require (
	github.com/ChimeraCoder/anaconda v2.0.0+incompatible
	github.com/ChimeraCoder/tokenbucket v0.0.0-20131201223612-c5a927568de7 // indirect
	github.com/azr/backoff v0.0.0-20160115115103-53511d3c7330 // indirect
	github.com/bwmarrin/discordgo v0.20.3
	github.com/dustin/go-jsonpointer v0.0.0-20160814072949-ba0abeacc3dc // indirect
	github.com/dustin/gojson v0.0.0-20160307161227-2e71ec9dd5ad // indirect
	github.com/garyburd/go-oauth v0.0.0-20180319155456-bca2e7f09a17 // indirect
	github.com/huandu/facebook v2.3.1+incompatible
	github.com/jinzhu/gorm v1.9.12
	github.com/joho/godotenv v1.3.0
	gopkg.in/yaml.v2 v2.3.0
)
